-13118917781170968082
-32103001171247766756
60203466191670945920
3781665949738804932716776686973930753152
-14376652200168489687
-107937321956057923137
401665889866537390850345927392077766292
7158932998474809838
4052672983832477255319359643834018
0
0
79190258482068222624
-7942070032297849706
-77695129994524810493
0
123454321
-262893465817292692
777794400000002016
69725399489644720
104348503068447218916
9098981590702776991
-89609765298896536742
-2758092697288632631901411415699097950348
0
2
-1
2
10000000000000000000000
-423046908010
106455616148645242083142421879
-408812154258087581
-7458733433199879911
367545301881720670159799649771026941851
-3598192066383998278846269960290377432407
-68681005905306345145
74293425425313179105
-31091994034471937771
-134360045969007268837308495600
9409002863799345807
888901089739171814175552391096116057720
-7753410171140570176
871258651474284633483437752044933979292779464663353472568020639030060324811602011591974106442145946801137656182833113918440646590801495041
-207501311444183071770092869658190872690895261349106815357830860736940371810852352
373237080387883707014619583349886976
-761149633814058031637568245085630689059428062282731187309417571077419505122110161219792133475426680062351185271395000361248959297284910854250596199532379394696627508342632832644100071056514538719629791335992888988508754476588277264197606183264296018996293017
936101047720968801
79123464180286101979053246035482457035944976
63426303021945631462619089756729765310793360014819464344123091086889184747960315802698666037135067919276773686540043700874212892361
1
3465457456424845
